{
    "application" : {
        "debug": true,
        "accesstokencache": false,
        "prettyPrint": true,
        "removeEmpty": {
            "request": false,
            "errors": false,
            "status": false
        }
    }

}
